Pivotagem com R e PostgreSQL
…
Formato wide é também a forma natural como os dados são preenchidos num formulário ou mesmo numa planilha.

Formato long é, por sua vez, muito melhor para proceder a análises e plotar gráficos. Ao colocar todos os meses numa única coluna e seus respectivos valores em outra, mantendo um terceira com o id ou nome do cliente, você só tem de informar que no eixo x vão os meses e no eixo y vão os valores.

Quando se realiza webscraping, frequentemente ocorre de não sabermos de antemão quais e quantas variáveis virão em cada página. A forma mais segura de realizar webscraping é manter todas a variáveis numa única coluna com seus respectivos valores em outra, para, num segundo momento, caso seja necessário, converter para formato wide. Esta opção é particularmente útil quando estamos realizando webscraping com R e enviando os dataframes já parseados para o PostgreSQL. Se convertermos para o formato wide de pronto, corremos o risco de tentar inserir uma coluna não existente na tabela contida no banco. Em formato long, esse risco não existe.

Pivotagem no R

De wide para long

Como o dataframe importado acima está em formato wide, vamos colocá-lo em formato long. Para tanto, utilizaremos o pacote tidyr, que já está carregado juntamente com os demais pacotes do tidyverse. Como queremos colocar todos os meses numa mesma coluna e seus respectivos valores numa segunda coluna, é suficiente chamar a função pivot_longer, informando que as colunas são o complemento da coluna cliente.

pivot_longer(pagamentos,!cliente)

# A tibble: 120 x 3
   cliente name  value
     <int> <chr> <int>
 1       1 jan     790
 2       1 fev     205
 3       1 mar     724
 4       1 abr     724
 5       1 mai     388
 6       1 jun     490
 7       1 jul     112
 8       1 ago     483
 9       1 set     230
10       1 out     385
# … with 110 more rows

Se você quiser informar os novos nomes das variáveis, melhor:

pagamentos_long <- pivot_longer(pagamentos, 
                                !cliente, 
                                names_to = "mes", 
                                values_to ="valor_pago")

# A tibble: 120 x 3
   cliente mes   valor_pago
     <int> <chr>      <int>
 1       1 jan          790
 2       1 fev          205
 3       1 mar          724
 4       1 abr          724
 5       1 mai          388
 6       1 jun          490
 7       1 jul          112
 8       1 ago          483
 9       1 set          230
10       1 out          385
# … with 110 more rows
…
